Source,Target,Link
LAWstopWC,westconnexAG,1
phughesryde,westconnexAG,1
LAWstopWC,westconnexAG,1
LAWstopWC,westconnexAG,1
LAWstopWC,westconnexAG,1
LAWstopWC,westconnexAG,1
LAWstopWC,westconnexAG,1
peteandcaz66,westconnexAG,1
AvaRedman,westconnexAG,1
joenmore,westconnexAG,1
LAWstopWC,westconnexAG,1
adrianpenguin1,westconnexAG,1
adrianpenguin1,westconnexAG,1
JenChappo,westconnexAG,1
Johnsmythe26,westconnexAG,1
DavidJSciascia,westconnexAG,1
andrew_thaler,westconnexAG,1
The_New_City,westconnexAG,1
The_New_City,westconnexAG,1
AlexPascoe5,westconnexAG,1
tilly64,westconnexAG,1
roslw,westconnexAG,1
NoiseNetAU,westconnexAG,1
mickyd44,westconnexAG,1
TowballDan,westconnexAG,1
woolloomoolo0,westconnexAG,1
mickyd44,westconnexAG,1
mickyd44,westconnexAG,1
VWHawkesbury,westconnexAG,1
Calliope1925,westconnexAG,1
SpillaneMj,westconnexAG,1
Huw_Merlin,westconnexAG,1
ShaunCarter70,westconnexAG,1
mmjarchitects,westconnexAG,1
kavam74,westconnexAG,1
JohnDunmoreLang,westconnexAG,1
callicoma,westconnexAG,1
Cyclify,westconnexAG,1
faully33,westconnexAG,1
SusTransOptions,westconnexAG,1
keepsydney1,westconnexAG,1
CaroKearney257,westconnexAG,1
bparker3104,westconnexAG,1
TramGary,westconnexAG,1
Linny57284055,westconnexAG,1
hayyy_png,westconnexAG,1
jjp666,westconnexAG,1
bwalen,westconnexAG,1
Max_the_86,westconnexAG,1
MBHayesIII,westconnexAG,1
vaughan_k,westconnexAG,1
vaughan_k,westconnexAG,1
vaughan_k,westconnexAG,1
gwynne007,westconnexAG,1
MarkPlackett1,westconnexAG,1
apicot,westconnexAG,1
PCKJ3627,westconnexAG,1
belligerentbee,westconnexAG,1
peter_b1953,westconnexAG,1
faully33,westconnexAG,1
WildlyManifest,westconnexAG,1
Matron6,westconnexAG,1
mckozo_rosa,westconnexAG,1
MBHayesIII,westconnexAG,1
SusTransOptions,westconnexAG,1
5151mpk,westconnexAG,1
keepsydney1,westconnexAG,1
fluffymason,westconnexAG,1
Janglebe,westconnexAG,1
Janglebe,westconnexAG,1
Thewhisperer101,westconnexAG,1
KoalaCPS,westconnexAG,1
N0ndescript,westconnexAG,1
SusTransOptions,westconnexAG,1
KoalaCPS,westconnexAG,1
LAWstopWC,westconnexAG,1
NSWcyclist,westconnexAG,1
SusTransOptions,westconnexAG,1
LAWstopWC,westconnexAG,1
crudeoilpeak,westconnexAG,1
DrRebeccaO,westconnexAG,1
madashell1947,westconnexAG,1
coonavass,westconnexAG,1
mycommentaryau,westconnexAG,1
LAWstopWC,westconnexAG,1
MBHayesIII,westconnexAG,1
SusTransOptions,westconnexAG,1
MarkPlackett1,westconnexAG,1
AklDesignChamp,westconnexAG,1
peter_b1953,westconnexAG,1
peter_b1953,westconnexAG,1
MarkPlackett1,westconnexAG,1
TessSLea,westconnexAG,1
reinzy,westconnexAG,1
f_lexi_ble,westconnexAG,1
crudeoilpeak,westconnexAG,1
SusTransOptions,westconnexAG,1
LAWstopWC,westconnexAG,1
MarkPlackett1,westconnexAG,1
Matron6,westconnexAG,1
sarahyellowpink,westconnexAG,1
WestSydneyToday,westconnexAG,1
parra_streets,westconnexAG,1
vittoriaraciti,westconnexAG,1
HYWilliamChan,westconnexAG,1
seanyful,westconnexAG,1
FlyingSydney,westconnexAG,1
Kooribaz,westconnexAG,1
DavidJohnSeale,westconnexAG,1
jesseadamsstein,westconnexAG,1
BoogaardCorey,westconnexAG,1
walksydney1,westconnexAG,1
PaulGarrettAU,westconnexAG,1
camerontw,westconnexAG,1
CjCjv44,westconnexAG,1
NorthAnnandale,westconnexAG,1
Annelies_92326,westconnexAG,1
wheelyweb,westconnexAG,1
VincentOchiel,westconnexAG,1
science_deniers,westconnexAG,1
prasads4,westconnexAG,1
LetSleepingDogz,westconnexAG,1
CityHubSydney,westconnexAG,1
innerwestzest,westconnexAG,1
hilmac,westconnexAG,1
tinyclouds,westconnexAG,1
showusleaders,westconnexAG,1
jay_10,westconnexAG,1
emilydooley91,westconnexAG,1
NC60726496,westconnexAG,1
Rurbaner,westconnexAG,1
bikeastnsw,westconnexAG,1
nao_nasir,westconnexAG,1
michaelalivolsi,westconnexAG,1
stephlewis1989,westconnexAG,1
H11Karyn,westconnexAG,1
dalam0109,westconnexAG,1
RickVarma,westconnexAG,1
NSWGR8022,westconnexAG,1
thecycleXplorer,westconnexAG,1
ABert1968,westconnexAG,1
ToniSmi40781433,westconnexAG,1
Serena12513021,westconnexAG,1
JanneanDean,westconnexAG,1
LizSkelton2015,westconnexAG,1
mshell_harris,westconnexAG,1
trnsprtst,westconnexAG,1
inmybackyardpls,westconnexAG,1
estygil,westconnexAG,1
georgemorgan54,westconnexAG,1
laing_maree,westconnexAG,1
angroksbalmain,westconnexAG,1
MatravilleSHS,westconnexAG,1
IsTophCrispy,westconnexAG,1
jrob6691,westconnexAG,1
brown_ant,westconnexAG,1
sb0lt1,westconnexAG,1
Jesse_Matheson,westconnexAG,1
RobynneHayward,westconnexAG,1
AZADEH54599607,westconnexAG,1
davidvilliam641,westconnexAG,1
menotrobot,westconnexAG,1
villagedale,westconnexAG,1
FViesMobiles,westconnexAG,1
footprint_news,westconnexAG,1
Vicky67979778,westconnexAG,1
earth__saved,westconnexAG,1
maikenAU,westconnexAG,1
dollyybird,westconnexAG,1
AmandaKeeling,westconnexAG,1
wwwong43,westconnexAG,1
Phuong_LeAD,westconnexAG,1
Sheridan_Rogers,westconnexAG,1
carterfloorcare,westconnexAG,1
Katrina55495815,westconnexAG,1
theSHroundabout,westconnexAG,1
jd_macpherson,westconnexAG,1
LaingMaree,westconnexAG,1
MML21525191,westconnexAG,1
iTfNSW,westconnexAG,1
LanieT96,westconnexAG,1
MarkFra15421277,westconnexAG,1
kristyhayward,westconnexAG,1
HouseCoinAU,westconnexAG,1
wallaby_watch,westconnexAG,1
Tessa_Rosalie,westconnexAG,1
AvaRedman,westconnexAG,1
Zoe67304151,westconnexAG,1
Pagee01,westconnexAG,1
SEARCH_Aus,westconnexAG,1
mattchuck1982,westconnexAG,1
biancachen_jour,westconnexAG,1
reverendjemima,westconnexAG,1
maryycherryy,westconnexAG,1
SavingMoorePark,westconnexAG,1
KateFree8,westconnexAG,1
JesseMcNicoll,westconnexAG,1
AbigailBoydMLC,westconnexAG,1
GreenLeftOnline,westconnexAG,1
DivaRites,westconnexAG,1
westconnexAG,cbaygreens,1
westconnexAG,NORTAG_Media,1
westconnexAG,AshestoAshesetv,1
westconnexAG,cunningham_cch,1
westconnexAG,paulinelockie,1
westconnexAG,AdamSpenceAU,1
westconnexAG,TollawareSydney,1
westconnexAG,sydbusinspector,1
westconnexAG,JointDestroyer,1
westconnexAG,MargaretSimons,1
westconnexAG,JennaPrice,1
westconnexAG,margokingston1,1
westconnexAG,KGreenbergTO,1
westconnexAG,CanUrbanism,1
westconnexAG,JimMoore1963,1
westconnexAG,tilly64,1
westconnexAG,BenAveling,1
westconnexAG,gbriellarrbrown,1
westconnexAG,ICLEI,1
westconnexAG,SusTransOptions,1
westconnexAG,FierceDinosaur,1
westconnexAG,totenviro,1
westconnexAG,newtownfire,1
westconnexAG,PipHinman,1
westconnexAG,localmorevocal,1
westconnexAG,SaveBelmore,1
westconnexAG,SydneysTrees,1
westconnexAG,MyInnerWest,1
westconnexAG,ben_noes,1
westconnexAG,RPSWestCon,1
westconnexAG,JohnL_InnerWest,1
westconnexAG,heatherlmcnab,1
westconnexAG,escalatorover,1
westconnexAG,RobOakeshott1,1
westconnexAG,jackbegbie,1
westconnexAG,pwa_architects,1
westconnexAG,PhilippaBateman,1
westconnexAG,GoldSuzie,1
westconnexAG,CRAwestconnex,1
westconnexAG,Transurban,1
westconnexAG,SydneyCentral,1
westconnexAG,briiilliant,1
westconnexAG,Infrastructur3A,1
westconnexAG,JonathanPBryant,1
westconnexAG,florezcata,1
westconnexAG,ignitesydney,1
westconnexAG,Vicpye,1
westconnexAG,serenity13,1
westconnexAG,LisaVisentin,1
westconnexAG,chriskerle,1
westconnexAG,Bob_Gunderson,1
westconnexAG,ticklypickly,1
westconnexAG,Eric_Doherty,1
westconnexAG,wardb,1
westconnexAG,afdelamora,1
westconnexAG,WillWillAFR,1
westconnexAG,janejacobsdoc,1
westconnexAG,ABoothNews,1
westconnexAG,MelbCrank,1
westconnexAG,mpbowers,1
westconnexAG,malcomtent,1
westconnexAG,Vote1Carolyn,1
westconnexAG,gpaddymanning,1
westconnexAG,SnazzySnezy,1
westconnexAG,noRoe8,1
westconnexAG,greatersydcomm,1
westconnexAG,elonmusk,1
westconnexAG,anticorruption,1
westconnexAG,hawraakash,1
westconnexAG,NayukaGorrie,1
westconnexAG,NelsonNygaard,1
westconnexAG,LAWstopWC,1
westconnexAG,jeffreytumlin,1
westconnexAG,CathGem,1
westconnexAG,TillerSteph,1
westconnexAG,SGSEcoandPlan,1
westconnexAG,pittwater_love,1
westconnexAG,TimboAllan,1
westconnexAG,MarionTerrill,1
westconnexAG,jmdurie,1
westconnexAG,newsandimages,1
westconnexAG,mjforno,1
westconnexAG,StrategicCities,1
westconnexAG,lizziepearl,1
westconnexAG,theurbanpod,1
westconnexAG,clintonduncan,1
westconnexAG,GreenJ,1
westconnexAG,penrith_sueday,1
westconnexAG,BenedictBrook,1
westconnexAG,blurboi,1
westconnexAG,stuartayresmp,1
westconnexAG,knausc,1
westconnexAG,keepsydney1,1
westconnexAG,justcandidly,1
westconnexAG,mr_timdavies,1
westconnexAG,Seantooker2,1
westconnexAG,kloussikian,1
westconnexAG,laura_slaurar,1
westconnexAG,mahla_c,1
westconnexAG,DavidJSciascia,1
westconnexAG,Wendy_Bacon,1
westconnexAG,GladysB,1
westconnexAG,GladysB,1
westconnexAG,plock1,1
westconnexAG,P_bogan,1
westconnexAG,noreasonspec,1
westconnexAG,niremas,1
westconnexAG,CallamPickering,1
westconnexAG,Wendy_Bacon,1
westconnexAG,RNBreakfast,1
westconnexAG,AlexGreenwich,1
westconnexAG,MichaelWestBiz,1
westconnexAG,westconnex,1
westconnexAG,GladysB,1
westconnexAG,hamishNews,1
westconnexAG,RNBreakfast,1
westconnexAG,GladysB,1
westconnexAG,moreymark,1
westconnexAG,Cyclify,1
westconnexAG,unionsnsw,1
westconnexAG,AECOM,1
westconnexAG,multimodalism,1
westconnexAG,Macquarie,1
westconnexAG,SydneyAirport,1
westconnexAG,achuter,1
westconnexAG,The_New_City,1
westconnexAG,nowestconnex,1
westconnexAG,IWCouncil,1
westconnexAG,The_New_City,1
westconnexAG,nowestconnex,1
westconnexAG,The_New_City,1
westconnexAG,nowestconnex,1
westconnexAG,GladysB,1
westconnexAG,westconnex,1
westconnexAG,NoiseNetAU,1
westconnexAG,DrRachie,1
westconnexAG,apicot,1
westconnexAG,mickyd44,1
westconnexAG,nowestconnex,1
westconnexAG,GladysB,1
westconnexAG,GladysB,1
westconnexAG,Wendy_Bacon,1
westconnexAG,smh,1
westconnexAG,westconnex,1
westconnexAG,GladysB,1
westconnexAG,VWHawkesbury,1
westconnexAG,GladysB,1
westconnexAG,GladysB,1
westconnexAG,smh,1
westconnexAG,smh,1
westconnexAG,PhilipThalis,1
westconnexAG,smh,1
westconnexAG,NSWLabor,1
westconnexAG,GladysB,1
westconnexAG,CloverMoore,1
westconnexAG,GladysB,1
westconnexAG,smh,1
westconnexAG,GladysB,1
westconnexAG,GladysB,1
westconnexAG,apicot,1
westconnexAG,GladysB,1
westconnexAG,GladysB,1
